{
  "title": "Sponsors",
  "titleText": "Events test",
  "api": "tasks",
  "children": [
    {
      "type": "page",
      "children": [
        {
          "type": "tasks",
          "value": "notifications"
        }
      ]
    }
  ]
}
  