{
  "title": "Event",
  "titleText": "Events test",
  "api": "speakers",
  "children": [
    {
      "type": "page",
      "children": [
        {
          "type": "list",
          "value": "speakers"
        }
      ]
    }
  ]
}